{
	"__v" : NumberInt("0"),
	"_id" : ObjectId("5a038357f2228d4ab0df4e7c"),
	"competency" : "Memahami, menerapkan, menganalisis pengetahuan faktual, konseptual, prosedural berdasarkan rasa ingin tahunya tentang ilmu pengetahuan, teknologi, seni, budaya, dan humaniora dengan wawasan kemanusiaan, kebangsaan, kenegaraan, dan peradaban terkait penyebab fenomena dan kejadian, serta menerapkan pengetahuan prosedural pada bidang kajian yang spesifik sesuai dengan bakat dan minatnya untuk memecahkan masalah.",
	"course" : ObjectId("59fb9f2b63741821ba9df720"),
	"domain" : "cognitive"
},
{
	"__v" : NumberInt("0"),
	"_id" : ObjectId("5a038373f2228d4ab0df4e7d"),
	"competency" : "Mengolah, menalar, dan menyaji dalam ranah konkret dan ranah abstrak terkait dengan pengembangan dari yang dipelajarinya di sekolah secara mandiri, dan mampu melaksanakan tugas spesifik dibawah pengawasan langsung.",
	"course" : ObjectId("59fb9f2b63741821ba9df720"),
	"domain" : "psychomotor"
},
{
	"__v" : NumberInt("0"),
	"_id" : ObjectId("5a0383a3f2228d4ab0df4e7e"),
	"competency" : "Mengolah, menalar, dan menyaji dalam ranah konkret dan ranah abstrak terkait dengan pengembangan dari yang dipelajarinya di sekolah secara mandiri, dan mampu melaksanakan tugas spesifik dibawah pengawasan langsung.",
	"course" : ObjectId("59fba183755d8527c2c72d6a"),
	"domain" : "psychomotor"
},
{
	"__v" : NumberInt("0"),
	"_id" : ObjectId("5a0383adf2228d4ab0df4e7f"),
	"competency" : "Mengolah, menalar, dan menyaji dalam ranah konkret dan ranah abstrak terkait dengan pengembangan dari yang dipelajarinya di sekolah secara mandiri, dan mampu melaksanakan tugas spesifik dibawah pengawasan langsung.",
	"course" : ObjectId("59fc8e7d68d3e27765158262"),
	"domain" : "psychomotor"
},
{
	"__v" : NumberInt("0"),
	"_id" : ObjectId("5a0383c1f2228d4ab0df4e80"),
	"competency" : "Memahami, menerapkan, menganalisis pengetahuan faktual, konseptual, prosedural berdasarkan rasa ingin tahunya tentang ilmu pengetahuan, teknologi, seni, budaya, dan humaniora dengan wawasan kemanusiaan, kebangsaan, kenegaraan, dan peradaban terkait penyebab fenomena dan kejadian, serta menerapkan pengetahuan prosedural pada bidang kajian yang spesifik sesuai dengan bakat dan minatnya untuk memecahkan masalah.",
	"course" : ObjectId("59fc8e7d68d3e27765158262"),
	"domain" : "cognitive"
},
{
	"__v" : NumberInt("0"),
	"_id" : ObjectId("5a0383cdf2228d4ab0df4e81"),
	"competency" : "Memahami, menerapkan, menganalisis pengetahuan faktual, konseptual, prosedural berdasarkan rasa ingin tahunya tentang ilmu pengetahuan, teknologi, seni, budaya, dan humaniora dengan wawasan kemanusiaan, kebangsaan, kenegaraan, dan peradaban terkait penyebab fenomena dan kejadian, serta menerapkan pengetahuan prosedural pada bidang kajian yang spesifik sesuai dengan bakat dan minatnya untuk memecahkan masalah.",
	"course" : ObjectId("59fba183755d8527c2c72d6a"),
	"domain" : "cognitive"
},
