{
	"__v" : NumberInt("0"),
	"_id" : ObjectId("59f8cac3d59b25351fc1ef04"),
	"address" : "Jl. Ciliwung No. 4 Bandung",
	"createdAt" : ISODate("2017-11-01T02:10:59.746+07:00"),
	"email" : "humas@smkn2bandung.sch.id",
	"name" : "SMK Negeri 2 Kota Bandung",
	"phone" : "(022) 7234285",
	"teachingYear" : ObjectId("59f8cc08d59b25351fc1ef06"),
	"updatedAt" : ISODate("2017-11-08T20:41:20.014+07:00"),
	"website" : "smkn2bandung.sch.id"
},
{
	"__v" : NumberInt("0"),
	"_id" : ObjectId("59f8cbc9d59b25351fc1ef05"),
	"address" : "Jl. Mutiara I Bl PPI Lembang",
	"createdAt" : ISODate("2017-11-01T02:15:21.867+07:00"),
	"email" : "bwisata@yahoo.co.id",
	"name" : "SMK Bina Wisata Lembang",
	"phone" : "(022) 2789223",
	"teachingYear" : ObjectId("59f8cc08d59b25351fc1ef06"),
	"updatedAt" : ISODate("2017-11-08T20:41:55.151+07:00"),
	"website" : "smkbinawisata.blogspot.com"
},
