{
	"__v" : NumberInt("0"),
	"_id" : ObjectId("5a1ef458075f2e722efd9204"),
	"name" : "(Kosong)",
	"testGroup" : ObjectId("5a59088e6a80d00a593dae62")
},
{
	"_id" : ObjectId("5a244e5128bd6814f730c2ee"),
	"name" : "(Kosong)",
	"testGroup" : ObjectId("5a590a3ab361710d6476b360")
},
{
	"_id" : ObjectId("5a244e5128bd6814f730c2ef"),
	"name" : "(Kosong)",
	"testGroup" : ObjectId("5a590a3ab361710d6476b361")
},
{
	"_id" : ObjectId("5a244e5128bd6814f730c2f0"),
	"name" : "(Kosong)",
	"testGroup" : ObjectId("5a590a3ab361710d6476b362")
},
{
	"_id" : ObjectId("5a244e5128bd6814f730c2f1"),
	"name" : "(Kosong)",
	"testGroup" : ObjectId("5a590a3ab361710d6476b363")
},
{
	"_id" : ObjectId("5a244e5128bd6814f730c2f2"),
	"name" : "(Kosong)",
	"testGroup" : ObjectId("5a590a3ab361710d6476b364")
},
{
	"_id" : ObjectId("5a244e5128bd6814f730c2f3"),
	"name" : "(Kosong)",
	"testGroup" : ObjectId("5a590a3ab361710d6476b365")
},
{
	"_id" : ObjectId("5a244e5128bd6814f730c2f4"),
	"name" : "(Kosong)",
	"testGroup" : ObjectId("5a590a3ab361710d6476b366")
},
{
	"_id" : ObjectId("5a244e5128bd6814f730c2f5"),
	"name" : "(Kosong)",
	"testGroup" : ObjectId("5a590a3ab361710d6476b367")
},
{
	"_id" : ObjectId("5a244e5128bd6814f730c2f6"),
	"name" : "(Kosong)",
	"testGroup" : ObjectId("5a590a3ab361710d6476b368")
},
{
	"_id" : ObjectId("5a244e5128bd6814f730c2f7"),
	"name" : "(Kosong)",
	"testGroup" : ObjectId("5a590a3ab361710d6476b369")
},
{
	"_id" : ObjectId("5a244e5128bd6814f730c2f8"),
	"name" : "(Kosong)",
	"testGroup" : ObjectId("5a590a3ab361710d6476b36a")
},
{
	"_id" : ObjectId("5a244e5128bd6814f730c2f9"),
	"name" : "(Kosong)",
	"testGroup" : ObjectId("5a590a3ab361710d6476b36b")
},
{
	"_id" : ObjectId("5a244e5128bd6814f730c2fa"),
	"name" : "(Kosong)",
	"testGroup" : ObjectId("5a590a3ab361710d6476b36c")
},
{
	"_id" : ObjectId("5a244e5128bd6814f730c2fb"),
	"name" : "(Kosong)",
	"testGroup" : ObjectId("5a590a3ab361710d6476b36d")
},
