{
	"__v" : NumberInt("0"),
	"_id" : ObjectId("5a59088e6a80d00a593dae62"),
	"matter" : ObjectId("5a143c52f9f66f6b16f9607f")
},
{
	"_id" : ObjectId("5a590a3ab361710d6476b360"),
	"matter" : ObjectId("5a170ac461e356362ced8deb")
},
{
	"_id" : ObjectId("5a590a3ab361710d6476b361"),
	"matter" : ObjectId("5a143c88f9f66f6b16f96080")
},
{
	"_id" : ObjectId("5a590a3ab361710d6476b362"),
	"matter" : ObjectId("5a143c9bf9f66f6b16f96081")
},
{
	"_id" : ObjectId("5a590a3ab361710d6476b363"),
	"matter" : ObjectId("5a170ac461e356362ced8dea")
},
{
	"_id" : ObjectId("5a590a3ab361710d6476b364"),
	"matter" : ObjectId("5a170ac461e356362ced8dec")
},
{
	"_id" : ObjectId("5a590a3ab361710d6476b365"),
	"matter" : ObjectId("5a170ac461e356362ced8ded")
},
{
	"_id" : ObjectId("5a590a3ab361710d6476b366"),
	"matter" : ObjectId("5a170ac461e356362ced8dee")
},
{
	"_id" : ObjectId("5a590a3ab361710d6476b367"),
	"matter" : ObjectId("5a170ac461e356362ced8def")
},
{
	"_id" : ObjectId("5a590a3ab361710d6476b368"),
	"matter" : ObjectId("5a170ac461e356362ced8df0")
},
{
	"_id" : ObjectId("5a590a3ab361710d6476b369"),
	"matter" : ObjectId("5a170ac461e356362ced8df1")
},
{
	"_id" : ObjectId("5a590a3ab361710d6476b36a"),
	"matter" : ObjectId("5a170ac461e356362ced8df2")
},
{
	"_id" : ObjectId("5a590a3ab361710d6476b36b"),
	"matter" : ObjectId("5a170ac461e356362ced8df3")
},
{
	"_id" : ObjectId("5a590a3ab361710d6476b36c"),
	"matter" : ObjectId("5a170ac461e356362ced8df4")
},
{
	"_id" : ObjectId("5a590a3ab361710d6476b36d"),
	"matter" : ObjectId("5a170ac461e356362ced8df5")
},
