{
	"__v" : NumberInt("0"),
	"_id" : ObjectId("5a2d4daf0a710c7ceaa008dc"),
	"email" : "masariefn@gmail.com",
	"gender" : "L (Laki-Laki)",
	"name" : "Arief Novianto",
	"password" : "$2a$10$oFeiVtMnExNKo5DNZkMO9.N.WxvOya1SNcSlFbqzDj2m9zadkqGaS",
	"username" : "ariefnovianto"
},
{
	"__v" : NumberInt("0"),
	"_id" : ObjectId("5a36e2d892b0280bdbbdbb07"),
	"email" : "zaenfaw@gmail.com",
	"gender" : "L (Laki-Laki)",
	"name" : "Muhammad Zaen Fawaid",
	"password" : "$2a$10$041JWVnSVOXkELQAJkyWAetFqNRL/.5IaySgntwVdgBgiyUaW/zjq",
	"username" : "zaenfaw"
},
{
	"__v" : NumberInt("0"),
	"_id" : ObjectId("5a386a9a1c345279b9843a0d"),
	"email" : "ranipus@gmail.com",
	"gender" : "P (Perempuan)",
	"name" : "Rani Puspita Sari",
	"password" : "$2a$10$O1Fb63.wcFGsVQRR171Gb.YloM/CIHSx.LXFyZTFUGaMpzR9SOz7W",
	"username" : "ranipus"
},
{
	"__v" : NumberInt("0"),
	"_id" : ObjectId("5a39fce0e1a7c40b2722e39b"),
	"email" : "alyanur@gmail.com",
	"gender" : "P (Perempuan)",
	"name" : "Alya Zafira Qurotal Aini",
	"password" : "$2a$10$qhRFeKkR80P4gXa17TDrL.X9TFemSlPpCxQAb8gxFuYHebOedi2Ta",
	"username" : "alyanur"
},
{
	"__v" : NumberInt("0"),
	"_id" : ObjectId("5a3a1cf0e1a7c40b2722e3a0"),
	"email" : "bagus@gmail.com",
	"gender" : "L (Laki-Laki)",
	"name" : "Bagus Nur Alam",
	"password" : "$2a$10$x7ewsw95uReKzRLZtSTrGeScv3K9TyS6h8EdrbWcS57GbLO.NqnJ6",
	"username" : "bagus"
},
{
	"__v" : NumberInt("0"),
	"_id" : ObjectId("5a3a1e20e1a7c40b2722e3a1"),
	"email" : "rapip@gmail.com",
	"password" : "$2a$10$8r6CQs61GehmkFRKoxmZeuiOZC4AOsBjaVlJ74GnumoHMHTB/x.2C",
	"username" : "rapip"
},
{
	"__v" : NumberInt("0"),
	"_id" : ObjectId("5a3a3073e1a7c40b2722e3a6"),
	"email" : "mahmud@gmail.com",
	"password" : "$2a$10$qsXsa/XM5ptHaY8rQH93e.d24vUKBqaUN0yieXj5fmeGoBfrt6NBu",
	"username" : "mahmud"
},
{
	"__v" : NumberInt("0"),
	"_id" : ObjectId("5a3a5f8cb2e8c944cb8f8e9d"),
	"email" : "fajri@gmail.com",
	"password" : "$2a$10$..3E88Mpj49F6nRk5HEMR.mduxnDzdUsLt8IggFV17xRoL9ZZfkCW",
	"username" : "fajri"
},
{
	"__v" : NumberInt("0"),
	"_id" : ObjectId("5a3a5fb4b2e8c944cb8f8e9e"),
	"email" : "ridwan@gmail.com",
	"password" : "$2a$10$yjdwXC1npXSzVeDDBY.RY.Ct.McAykNkg6kMSWOb5I33vh4xNqKH.",
	"username" : "ridwan"
},
{
	"__v" : NumberInt("0"),
	"_id" : ObjectId("5a3bdec8e4de7d09abfd32d0"),
	"email" : "aldindut@gmail.com",
	"password" : "$2a$10$Sya0kRuiVemHX2TP0XCYA.LDTA0Xkz4LBm5bq.kJl9Sy0dcpV6iXy",
	"username" : "aldindut"
},
{
	"__v" : NumberInt("0"),
	"_id" : ObjectId("5a3dad9adce32b6410b6ee6d"),
	"email" : "tadin@gmail.com",
	"gender" : "L (Laki-Laki)",
	"name" : "Mutadin Asim",
	"password" : "$2a$10$vrBQt4/bHyv7m37ogdcQGuyplE.13ioJLxSyPshnXq9nIBsYtqPbC",
	"username" : "tadin"
},
{
	"__v" : NumberInt("0"),
	"_id" : ObjectId("5a5e9f1d288a8254786b5382"),
	"email" : "adamboy@gmail.com",
	"password" : "$2a$10$ldebXV.LCqg8yRnWewuN2.dd3VsOAEHeMpvv4SloYxy1mJwh5wQki",
	"username" : "adamboy"
},
