{"__v":0,"_id":{"$oid":"5a038a36f2228d4ab0df4e82"},"competency":"Memahami bahasa untuk mengelola basis data.","coreCompetency":{"$oid":"5a038357f2228d4ab0df4e7c"},"createdAt":{"$date":"2017-11-08T22:50:30.212Z"},"number":6,"updatedAt":{"$date":"2017-11-08T22:50:30.212Z"}}
{"__v":0,"_id":{"$oid":"5a038a64f2228d4ab0df4e84"},"competency":"Memahami bahasa untuk mengelola basis data.","coreCompetency":{"$oid":"5a0383cdf2228d4ab0df4e81"},"createdAt":{"$date":"2017-11-08T22:51:16.273Z"},"number":6,"updatedAt":{"$date":"2017-11-08T22:51:16.273Z"}}
{"__v":0,"_id":{"$oid":"5a038a75f2228d4ab0df4e85"},"competency":"Memahami bahasa untuk mengelola basis data.","coreCompetency":{"$oid":"5a0383c1f2228d4ab0df4e80"},"createdAt":{"$date":"2017-11-08T22:51:33.423Z"},"number":6,"updatedAt":{"$date":"2017-11-08T22:51:33.423Z"}}
{"__v":0,"_id":{"$oid":"5a038af5f2228d4ab0df4e86"},"competency":"Menyajikan hasil analisis instruksi pengelolaan basis data.","coreCompetency":{"$oid":"5a0383adf2228d4ab0df4e7f"},"createdAt":{"$date":"2017-11-08T22:53:41.747Z"},"number":6,"updatedAt":{"$date":"2017-11-08T22:53:41.747Z"}}
{"__v":0,"_id":{"$oid":"5a038b08f2228d4ab0df4e87"},"competency":"Menyajikan hasil analisis instruksi pengelolaan basis data.","coreCompetency":{"$oid":"5a0383a3f2228d4ab0df4e7e"},"createdAt":{"$date":"2017-11-08T22:54:00.584Z"},"number":6,"updatedAt":{"$date":"2017-11-08T22:54:00.584Z"}}
{"__v":0,"_id":{"$oid":"5a038b12f2228d4ab0df4e88"},"competency":"Menyajikan hasil analisis instruksi pengelolaan basis data.","coreCompetency":{"$oid":"5a038373f2228d4ab0df4e7d"},"createdAt":{"$date":"2017-11-08T22:54:10.585Z"},"number":6,"updatedAt":{"$date":"2017-11-08T22:54:10.585Z"}}
