{"__v":0,"_id":{"$oid":"59fb82e685baa7119dd25a3e"},"name":"RPL (Rekayasa Perangkat Lunak)","teachingYear":{"$oid":"59f8cc08d59b25351fc1ef06"}}
{"__v":0,"_id":{"$oid":"59fb82fd85baa7119dd25a3f"},"name":"TKJ (Teknik Komputer dan Jaringan)","teachingYear":{"$oid":"59f8cc08d59b25351fc1ef06"}}
{"__v":0,"_id":{"$oid":"59fb831185baa7119dd25a40"},"name":"MM (Multimedia)","teachingYear":{"$oid":"59f8cc08d59b25351fc1ef06"}}
{"__v":0,"_id":{"$oid":"59fb831985baa7119dd25a41"},"name":"AM (Animasi)","teachingYear":{"$oid":"59f8cc08d59b25351fc1ef06"}}
