{"__v":0,"_id":{"$oid":"5a1ef6ae075f2e722efd9206"},"answer":"create database pramuka","content":"<div style='font-family: consolas; display: inline-block;'>create database pramuka</div>","letter":1,"mcQuestion":{"$oid":"5a1ef65a075f2e722efd9205"}}
{"__v":0,"_id":{"$oid":"5a1ef6b8075f2e722efd9207"},"answer":"create data base pmr;","content":"<div style='font-family: consolas; display: inline-block;'>create data base pmr;</div>","letter":2,"mcQuestion":{"$oid":"5a1ef65a075f2e722efd9205"}}
{"__v":0,"_id":{"$oid":"5a1ef6c1075f2e722efd9208"},"answer":"create database paskibra;","content":"<div style='font-family: consolas; display: inline-block;'>create database paskibra;</div>","letter":3,"mcQuestion":{"$oid":"5a1ef65a075f2e722efd9205"}}
{"__v":0,"_id":{"$oid":"5a1ef6c9075f2e722efd9209"},"answer":"create data base osis","content":"<div style='font-family: consolas; display: inline-block;'>create data base osis</div>","letter":4,"mcQuestion":{"$oid":"5a1ef65a075f2e722efd9205"}}
{"__v":0,"_id":{"$oid":"5a1ef6d1075f2e722efd920a"},"answer":"create database seniTeater","content":"<div style='font-family: consolas; display: inline-block;'>create database seniTeater</div>","letter":5,"mcQuestion":{"$oid":"5a1ef65a075f2e722efd9205"}}
{"_id":{"$oid":"5a1ef9d450fe832282338de5"},"answer":"drop database prakerin;","content":"<div style='font-family: consolas; display: inline-block;'>drop database prakerin;</div>","letter":1,"mcQuestion":{"$oid":"5a1ef8b450fe832282338ddd"}}
{"_id":{"$oid":"5a1ef9d450fe832282338de6"},"answer":"drop data base prakerin;","content":"<div style='font-family: consolas; display: inline-block;'>drop data base prakerin;</div>","letter":2,"mcQuestion":{"$oid":"5a1ef8b450fe832282338ddd"}}
{"_id":{"$oid":"5a1ef9d450fe832282338de7"},"answer":"delete database prakerin;","content":"<div style='font-family: consolas; display: inline-block;'>delete database prakerin;</div>","letter":3,"mcQuestion":{"$oid":"5a1ef8b450fe832282338ddd"}}
{"_id":{"$oid":"5a1ef9d450fe832282338de8"},"answer":"delete data base prakerin;","content":"<div style='font-family: consolas; display: inline-block;'>delete data base prakerin;</div>","letter":4,"mcQuestion":{"$oid":"5a1ef8b450fe832282338ddd"}}
{"_id":{"$oid":"5a1ef9d450fe832282338de9"},"answer":"drop database prakerin","content":"<div style='font-family: consolas; display: inline-block;'>drop database prakerin</div>","letter":5,"mcQuestion":{"$oid":"5a1ef8b450fe832282338ddd"}}
{"_id":{"$oid":"5a2446ca5568f521f130b8c9"},"content":"<div style='font-family: consolas; display: inline-block;'><p>create table peminjaman(<br />&nbsp;&nbsp; &nbsp;id_peminjaman int auto_increment primary key,<br />&nbsp;&nbsp; &nbsp;nama_peminjam varhcar(30) not null,<br />&nbsp;&nbsp; &nbsp;kontak_peminjam varchar(20) not null unique,<br />&nbsp;&nbsp; &nbsp;tgl_pinjam timestamp not null,<br />&nbsp;&nbsp; &nbsp;id_buku int not null,<br />&nbsp;&nbsp; &nbsp;id_karyawan int not null,<br />&nbsp;&nbsp; &nbsp;foreign key (id_buku) references buku (id_buku),<br />&nbsp;&nbsp; &nbsp;foreign key (id_karyawan) references karyawan (id_karyawan)<br />);</p></div>","letter":1,"mcQuestion":{"$oid":"5a2441b25568f521f130b8a9"}}
{"_id":{"$oid":"5a2446ca5568f521f130b8ca"},"content":"<div style='font-family: consolas; display: inline-block;'><p>create table peminjaman(<br />&nbsp;&nbsp; &nbsp;id_peminjaman int auto_increment primary key,<br />&nbsp;&nbsp; &nbsp;nama_peminjam varhcar(30) not null,<br />&nbsp;&nbsp; &nbsp;kontak_peminjam varchar(20) not null unique,<br />&nbsp;&nbsp; &nbsp;tgl_pinjam timestamp not null,<br />&nbsp;&nbsp; &nbsp;foreign key (id_buku) references buku (id_buku),<br />&nbsp;&nbsp; &nbsp;foreign key (id_karyawan) references karyawan (id_karyawan)<br />);</p></div>","letter":2,"mcQuestion":{"$oid":"5a2441b25568f521f130b8a9"}}
{"_id":{"$oid":"5a2446ca5568f521f130b8cb"},"content":"<div style='font-family: consolas; display: inline-block;'><p>create table peminjaman(<br />&nbsp;&nbsp; &nbsp;id_peminjaman int auto_increment primary key;<br />&nbsp;&nbsp; &nbsp;nama_peminjam varhcar(30) not null;<br />&nbsp;&nbsp; &nbsp;kontak_peminjam varchar(20) not null unique;<br />&nbsp;&nbsp; &nbsp;tgl_pinjam timestamp not null;<br />&nbsp;&nbsp; &nbsp;foreign key (id_buku) references buku (id_buku);<br />&nbsp;&nbsp; &nbsp;foreign key (id_karyawan) references karyawan (id_karyawan);<br />);</p></div>","letter":3,"mcQuestion":{"$oid":"5a2441b25568f521f130b8a9"}}
{"_id":{"$oid":"5a2446ca5568f521f130b8cc"},"content":"<div style='font-family: consolas; display: inline-block;'><p>create table peminjaman(<br />&nbsp;&nbsp; &nbsp;id_peminjaman int auto_increment foreign key,<br />&nbsp;&nbsp; &nbsp;nama_peminjam varhcar(30) not null,<br />&nbsp;&nbsp; &nbsp;kontak_peminjam varchar(20) not null unique,<br />&nbsp;&nbsp; &nbsp;tgl_pinjam timestamp not null,<br />&nbsp;&nbsp; &nbsp;id_buku int not null,<br />&nbsp;&nbsp; &nbsp;id_karyawan int not null,<br />&nbsp;&nbsp; &nbsp;primary key (id_buku) references buku (id_buku),<br />&nbsp;&nbsp; &nbsp;primary key (id_karyawan) references karyawan (id_karyawan)<br />);</p></div>","letter":4,"mcQuestion":{"$oid":"5a2441b25568f521f130b8a9"}}
{"_id":{"$oid":"5a2446ca5568f521f130b8cd"},"content":"<div style='font-family: consolas; display: inline-block;'><p>create table peminjaman(<br />&nbsp;&nbsp; &nbsp;id_peminjaman int auto_increment primary key,<br />&nbsp;&nbsp; &nbsp;nama_peminjam varhcar(30) not null,<br />&nbsp;&nbsp; &nbsp;kontak_peminjam varchar(20) not null unique,<br />&nbsp;&nbsp; &nbsp;tgl_pinjam timestamp not null,<br />&nbsp;&nbsp; &nbsp;id_buku int not null,<br />&nbsp;&nbsp; &nbsp;id_karyawan int not null,<br />&nbsp;&nbsp; &nbsp;foreign key (id_buku) references buku (id_buku),<br />&nbsp;&nbsp; &nbsp;foreign key (id_karyawan) references karyawan (id_karyawan)<br />)</p></div>","letter":5,"mcQuestion":{"$oid":"5a2441b25568f521f130b8a9"}}
{"_id":{"$oid":"5a24498a5568f521f130b8de"},"content":"<div style='font-family: consolas; display: inline-block;'>alter table remove siswa</div>","letter":1,"mcQuestion":{"$oid":"5a2441d95568f521f130b8ab"}}
{"_id":{"$oid":"5a24498a5568f521f130b8df"},"content":"<div style='font-family: consolas; display: inline-block;'>drop table peminjaman;</div>","letter":2,"mcQuestion":{"$oid":"5a2441d95568f521f130b8ab"}}
{"_id":{"$oid":"5a24498a5568f521f130b8e0"},"content":"<div style='font-family: consolas; display: inline-block;'>drop database perpustakaan</div>","letter":3,"mcQuestion":{"$oid":"5a2441d95568f521f130b8ab"}}
{"_id":{"$oid":"5a24498a5568f521f130b8e1"},"content":"<div style='font-family: consolas; display: inline-block;'>alter table drop petugas</div>","letter":4,"mcQuestion":{"$oid":"5a2441d95568f521f130b8ab"}}
{"_id":{"$oid":"5a24498a5568f521f130b8e2"},"content":"<div style='font-family: consolas; display: inline-block;'>remove tabel buku;</div>","letter":5,"mcQuestion":{"$oid":"5a2441d95568f521f130b8ab"}}
{"_id":{"$oid":"5a2449c25568f521f130b8e3"},"content":"<div style='font-family: consolas; display: inline-block;'>rename table from karyawan to petugas;</div>","letter":1,"mcQuestion":{"$oid":"5a2441e75568f521f130b8ac"}}
{"_id":{"$oid":"5a2449c25568f521f130b8e4"},"content":"<div style='font-family: consolas; display: inline-block;'>modify table karyawan rename to petugas;</div>","letter":2,"mcQuestion":{"$oid":"5a2441e75568f521f130b8ac"}}
{"_id":{"$oid":"5a2449c25568f521f130b8e5"},"content":"<div style='font-family: consolas; display: inline-block;'>rename table karyawan to petugas;</div>","letter":3,"mcQuestion":{"$oid":"5a2441e75568f521f130b8ac"}}
{"_id":{"$oid":"5a2449c25568f521f130b8e6"},"content":"<div style='font-family: consolas; display: inline-block;'>alter table karyawan rename to petugas;</div>","letter":4,"mcQuestion":{"$oid":"5a2441e75568f521f130b8ac"}}
{"_id":{"$oid":"5a2449c25568f521f130b8e7"},"content":"<div style='font-family: consolas; display: inline-block;'>alter table karyawan modify to petugas;</div>","letter":5,"mcQuestion":{"$oid":"5a2441e75568f521f130b8ac"}}
{"_id":{"$oid":"5a244a085568f521f130b8e8"},"content":"<div style='font-family: consolas; display: inline-block;'>insert buku (,’TKJ: Jaringan Dasar 1’,null,’Direktorat Pembinaan Sekolah Menengah Kejuruan’);</div>","letter":1,"mcQuestion":{"$oid":"5a2442285568f521f130b8ae"}}
{"_id":{"$oid":"5a244a085568f521f130b8e9"},"content":"<div style='font-family: consolas; display: inline-block;'>insert into buku values (,’Sistem Operasi’,’Dr. Bambang Hariyanto’,’Informatika’);</div>","letter":2,"mcQuestion":{"$oid":"5a2442285568f521f130b8ae"}}
{"_id":{"$oid":"5a244a085568f521f130b8ea"},"content":"<div style='font-family: consolas; display: inline-block;'>insert to buku values (001,’Pemrograman Web’,’Priyanto Hidayatullah’,’Informatika’);</div>","letter":3,"mcQuestion":{"$oid":"5a2442285568f521f130b8ae"}}
{"_id":{"$oid":"5a244a085568f521f130b8eb"},"content":"<div style='font-family: consolas; display: inline-block;'>insert into buku values (002,’TKJ: Perakitan Komputer 2’,,’Direktorat Pembinaan Sekolah Menengah Kejuruan’)</div>","letter":4,"mcQuestion":{"$oid":"5a2442285568f521f130b8ae"}}
{"_id":{"$oid":"5a244a085568f521f130b8ec"},"content":"<div style='font-family: consolas; display: inline-block;'>insert to buku values (3,’Pemrograman Web 2’,null,’Direktorat Pembinaan Sekolah Menengah Kejuruan’)</div>","letter":5,"mcQuestion":{"$oid":"5a2442285568f521f130b8ae"}}
{"_id":{"$oid":"5a244a345568f521f130b8ed"},"content":"<div style='font-family: consolas; display: inline-block;'>select judul, pengarang, penerbit from buku;</div>","letter":1,"mcQuestion":{"$oid":"5a2442325568f521f130b8af"}}
{"_id":{"$oid":"5a244a345568f521f130b8ee"},"content":"<div style='font-family: consolas; display: inline-block;'>select all data from buku;</div>","letter":2,"mcQuestion":{"$oid":"5a2442325568f521f130b8af"}}
{"_id":{"$oid":"5a244a345568f521f130b8ef"},"content":"<div style='font-family: consolas; display: inline-block;'>select all field from buku;</div>","letter":3,"mcQuestion":{"$oid":"5a2442325568f521f130b8af"}}
{"_id":{"$oid":"5a244a345568f521f130b8f0"},"content":"<div style='font-family: consolas; display: inline-block;'>select all from buku;</div>","letter":4,"mcQuestion":{"$oid":"5a2442325568f521f130b8af"}}
{"_id":{"$oid":"5a244a345568f521f130b8f1"},"content":"<div style='font-family: consolas; display: inline-block;'>select * from buku;</div>","letter":5,"mcQuestion":{"$oid":"5a2442325568f521f130b8af"}}
{"_id":{"$oid":"5a244a5f5568f521f130b8f2"},"content":"<div style='font-family: consolas; display: inline-block;'>select * from buku penerbit=’Bandungkarya’;</div>","letter":1,"mcQuestion":{"$oid":"5a24423e5568f521f130b8b0"}}
{"_id":{"$oid":"5a244a5f5568f521f130b8f3"},"content":"<div style='font-family: consolas; display: inline-block;'>select * from buku where penerbit like @Bandungkarya;</div>","letter":2,"mcQuestion":{"$oid":"5a24423e5568f521f130b8b0"}}
{"_id":{"$oid":"5a244a5f5568f521f130b8f4"},"content":"<div style='font-family: consolas; display: inline-block;'>select * from buku where penerbit=’Bandungkarya’;</div>","letter":3,"mcQuestion":{"$oid":"5a24423e5568f521f130b8b0"}}
{"_id":{"$oid":"5a244a5f5568f521f130b8f5"},"content":"<div style='font-family: consolas; display: inline-block;'>select * from buku where penerbit=Bandungkarya;</div>","letter":4,"mcQuestion":{"$oid":"5a24423e5568f521f130b8b0"}}
{"_id":{"$oid":"5a244a5f5568f521f130b8f6"},"content":"<div style='font-family: consolas; display: inline-block;'>select * from buku penerbit ’Bandungkarya’;</div>","letter":5,"mcQuestion":{"$oid":"5a24423e5568f521f130b8b0"}}
{"_id":{"$oid":"5a244a885568f521f130b8f7"},"content":"<div style='font-family: consolas; display: inline-block;'>select a.judul, b.nama_peminjam, b.kontak_peminjam from buku a, peminjaman b where a.id_buku=b.id_buku;</div>","letter":1,"mcQuestion":{"$oid":"5a2442485568f521f130b8b1"}}
{"_id":{"$oid":"5a244a885568f521f130b8f8"},"content":"<div style='font-family: consolas; display: inline-block;'>select a.judul, b.nama_peminjam, c.kontak_peminjam from buku a, peminjaman b;</div>","letter":2,"mcQuestion":{"$oid":"5a2442485568f521f130b8b1"}}
{"_id":{"$oid":"5a244a885568f521f130b8f9"},"content":"<div style='font-family: consolas; display: inline-block;'>select a.judul, a.nama_peminjam, b.kontak_peminjam from buku a, peminjaman b;</div>","letter":3,"mcQuestion":{"$oid":"5a2442485568f521f130b8b1"}}
{"_id":{"$oid":"5a244a885568f521f130b8fa"},"content":"<div style='font-family: consolas; display: inline-block;'>select a.judul, b.nama_peminjam, c.kontak_peminjam from buku p, peminjaman q where p.id_buku=q.id_buku;</div>","letter":4,"mcQuestion":{"$oid":"5a2442485568f521f130b8b1"}}
{"_id":{"$oid":"5a244a885568f521f130b8fb"},"content":"<div style='font-family: consolas; display: inline-block;'>select buku.judul, peminjaman.nama_peminjam, peminjaman.kontak_peminjam from peminjaman;</div>","letter":5,"mcQuestion":{"$oid":"5a2442485568f521f130b8b1"}}
{"_id":{"$oid":"5a244ab75568f521f130b8fc"},"content":"<div style='font-family: consolas; display: inline-block;'>select judul, pengarang, penerbit from buku where penerbit=Bandungkarya and pengarang=Suripto;</div>","letter":1,"mcQuestion":{"$oid":"5a2442545568f521f130b8b2"}}
{"_id":{"$oid":"5a244ab75568f521f130b8fd"},"content":"<div style='font-family: consolas; display: inline-block;'>select * from buku where penerbit=’Bandungkarya’ and pengarang=’Suripto’;</div>","letter":2,"mcQuestion":{"$oid":"5a2442545568f521f130b8b2"}}
{"_id":{"$oid":"5a244ab75568f521f130b8fe"},"content":"<div style='font-family: consolas; display: inline-block;'>select judul, pengarang, penerbit from buku where penerbit=’Bandungkarya’ and pengarang=’Suripto’</div>","letter":3,"mcQuestion":{"$oid":"5a2442545568f521f130b8b2"}}
{"_id":{"$oid":"5a244ab75568f521f130b8ff"},"content":"<div style='font-family: consolas; display: inline-block;'>select from buku where penerbit=’Bandungkarya’ and pengarang=’Suripto’;</div>","letter":4,"mcQuestion":{"$oid":"5a2442545568f521f130b8b2"}}
{"_id":{"$oid":"5a244ab75568f521f130b900"},"content":"<div style='font-family: consolas; display: inline-block;'>select * from buku where penerbit=’Bandungkarya’ or pengarang=’Suripto’;</div>","letter":5,"mcQuestion":{"$oid":"5a2442545568f521f130b8b2"}}
{"_id":{"$oid":"5a244ae65568f521f130b901"},"content":"<div style='font-family: consolas; display: inline-block;'>select buku.judul, peminjaman.tgl_pinjam, peminjaman.nama_peminjam from buku, peminjaman where buku.id_buku=peminjaman.id_buku or tgl_peminjaman between ‘2017-01-01’ and ‘2017-02-28’;</div>","letter":1,"mcQuestion":{"$oid":"5a2442605568f521f130b8b3"}}
{"_id":{"$oid":"5a244ae65568f521f130b902"},"content":"<div style='font-family: consolas; display: inline-block;'>select buku.judul, peminjaman.tgl_pinjam, peminjaman.nama_peminjam from buku, peminjaman where buku.id_buku=peminjaman.id_buku and tgl_peminjaman not between ‘2017-01-01’ and ‘2017-02-28’;</div>","letter":2,"mcQuestion":{"$oid":"5a2442605568f521f130b8b3"}}
{"_id":{"$oid":"5a244ae65568f521f130b903"},"content":"<div style='font-family: consolas; display: inline-block;'>select a.judul, b.tgl_pinjam, b.nama_peminjam from buku a, peminjaman b where a.id_buku=b.id_buku and tgl_peminjaman not between ‘2017-01-01’ or ‘2017-02-28’;</div>","letter":3,"mcQuestion":{"$oid":"5a2442605568f521f130b8b3"}}
{"_id":{"$oid":"5a244ae65568f521f130b904"},"content":"<div style='font-family: consolas; display: inline-block;'>select a.judul, b.tgl_pinjam, b.nama_peminjam from buku a, peminjaman b where a.id_buku=b.id_buku and tgl_peminjaman between ‘2017-01-01’ or ‘2017-02-28’;</div>","letter":4,"mcQuestion":{"$oid":"5a2442605568f521f130b8b3"}}
{"_id":{"$oid":"5a244ae65568f521f130b905"},"content":"<div style='font-family: consolas; display: inline-block;'>select buku.judul, peminjaman.tgl_pinjam, peminjaman.nama_peminjam from buku, peminjaman where buku.id_buku=peminjaman.id_buku and tgl_peminjaman between ‘2017-01-01’ and ‘2017-02-28’;</div>","letter":5,"mcQuestion":{"$oid":"5a2442605568f521f130b8b3"}}
{"_id":{"$oid":"5a244b0c5568f521f130b906"},"content":"<div style='font-family: consolas; display: inline-block;'>select * from buku where judul like %pemrograman;</div>","letter":1,"mcQuestion":{"$oid":"5a2442695568f521f130b8b4"}}
{"_id":{"$oid":"5a244b0c5568f521f130b907"},"content":"<div style='font-family: consolas; display: inline-block;'>select * from buku where judul like %pemrograman%;</div>","letter":2,"mcQuestion":{"$oid":"5a2442695568f521f130b8b4"}}
{"_id":{"$oid":"5a244b0c5568f521f130b908"},"content":"<div style='font-family: consolas; display: inline-block;'>select * from buku where judul like ‘%pemrograman’;</div>","letter":3,"mcQuestion":{"$oid":"5a2442695568f521f130b8b4"}}
{"_id":{"$oid":"5a244b0c5568f521f130b909"},"content":"<div style='font-family: consolas; display: inline-block;'>select * from buku where judul like ‘%pemrograman%’;</div>","letter":4,"mcQuestion":{"$oid":"5a2442695568f521f130b8b4"}}
{"_id":{"$oid":"5a244b0c5568f521f130b90a"},"content":"<div style='font-family: consolas; display: inline-block;'>select * from buku where judul like ‘pemrograman%’;</div>","letter":5,"mcQuestion":{"$oid":"5a2442695568f521f130b8b4"}}
{"_id":{"$oid":"5a244b3a5568f521f130b90b"},"content":"<div style='font-family: consolas; display: inline-block;'>select * from peminjaman where order by tgl_peminjaman asc;</div>","letter":1,"mcQuestion":{"$oid":"5a2442825568f521f130b8b5"}}
{"_id":{"$oid":"5a244b3a5568f521f130b90c"},"content":"<div style='font-family: consolas; display: inline-block;'>select * from peminjaman order tgl_peminjaman;</div>","letter":2,"mcQuestion":{"$oid":"5a2442825568f521f130b8b5"}}
{"_id":{"$oid":"5a244b3a5568f521f130b90d"},"content":"<div style='font-family: consolas; display: inline-block;'>select * from peminjaman order by tgl_peminjaman;</div>","letter":3,"mcQuestion":{"$oid":"5a2442825568f521f130b8b5"}}
{"_id":{"$oid":"5a244b3a5568f521f130b90e"},"content":"<div style='font-family: consolas; display: inline-block;'>select * from peminjaman order tgl_peminjaman asc;</div>","letter":4,"mcQuestion":{"$oid":"5a2442825568f521f130b8b5"}}
{"_id":{"$oid":"5a244b3a5568f521f130b90f"},"content":"<div style='font-family: consolas; display: inline-block;'>select * from peminjaman order by tgl_peminjaman desc;</div>","letter":5,"mcQuestion":{"$oid":"5a2442825568f521f130b8b5"}}
{"_id":{"$oid":"5a244b825568f521f130b910"},"content":"<div style='font-family: consolas; display: inline-block;'>select * from buku order by judul desc;</div>","letter":1,"mcQuestion":{"$oid":"5a24428b5568f521f130b8b6"}}
{"_id":{"$oid":"5a244b825568f521f130b911"},"content":"<div style='font-family: consolas; display: inline-block;'>select * from buku order by judul;</div>","letter":2,"mcQuestion":{"$oid":"5a24428b5568f521f130b8b6"}}
{"_id":{"$oid":"5a244b825568f521f130b912"},"content":"<div style='font-family: consolas; display: inline-block;'>select * from buku order by judul asc;</div>","letter":3,"mcQuestion":{"$oid":"5a24428b5568f521f130b8b6"}}
{"_id":{"$oid":"5a244b825568f521f130b913"},"content":"<div style='font-family: consolas; display: inline-block;'>select * from buku order judul asc;</div>","letter":4,"mcQuestion":{"$oid":"5a24428b5568f521f130b8b6"}}
{"_id":{"$oid":"5a244b825568f521f130b914"},"content":"<div style='font-family: consolas; display: inline-block;'>select * from buku where order judul desc;</div>","letter":5,"mcQuestion":{"$oid":"5a24428b5568f521f130b8b6"}}
{"_id":{"$oid":"5a244ba85568f521f130b915"},"content":"<div style='font-family: consolas; display: inline-block;'>update from buku where judul=’Matematika X’ set pengarang=’Suherman’;</div>","letter":1,"mcQuestion":{"$oid":"5a2442955568f521f130b8b7"}}
{"_id":{"$oid":"5a244ba85568f521f130b916"},"content":"<div style='font-family: consolas; display: inline-block;'>update from buku set pengarang=’Suherman’ where judul=’Matematika X’;</div>","letter":2,"mcQuestion":{"$oid":"5a2442955568f521f130b8b7"}}
{"_id":{"$oid":"5a244ba85568f521f130b917"},"content":"<div style='font-family: consolas; display: inline-block;'>alter table buku set pengarang=’Suherman’ where judul=’Matematika X’;</div>","letter":3,"mcQuestion":{"$oid":"5a2442955568f521f130b8b7"}}
{"_id":{"$oid":"5a244ba85568f521f130b918"},"content":"<div style='font-family: consolas; display: inline-block;'>update from buku set pengarang=’Suherman’ where judul=’%Matematika X%’;</div>","letter":4,"mcQuestion":{"$oid":"5a2442955568f521f130b8b7"}}
{"_id":{"$oid":"5a244ba85568f521f130b919"},"content":"<div style='font-family: consolas; display: inline-block;'>update buku set pengarang=’Suherman’ where judul=’Matematika X’;</div>","letter":5,"mcQuestion":{"$oid":"5a2442955568f521f130b8b7"}}
{"_id":{"$oid":"5a244bcc5568f521f130b91a"},"content":"<div style='font-family: consolas; display: inline-block;'>delete from peminjaman where tgl_peminjaman ’2017-01-10’;</div>","letter":1,"mcQuestion":{"$oid":"5a24429e5568f521f130b8b8"}}
{"_id":{"$oid":"5a244bcc5568f521f130b91b"},"content":"<div style='font-family: consolas; display: inline-block;'>delete from peminjaman where tgl_peminjaman=10-01-2017;</div>","letter":2,"mcQuestion":{"$oid":"5a24429e5568f521f130b8b8"}}
{"_id":{"$oid":"5a244bcc5568f521f130b91c"},"content":"<div style='font-family: consolas; display: inline-block;'>delete from peminjaman where tgl_peminjaman=2017-01-10;</div>","letter":3,"mcQuestion":{"$oid":"5a24429e5568f521f130b8b8"}}
{"_id":{"$oid":"5a244bcc5568f521f130b91d"},"content":"<div style='font-family: consolas; display: inline-block;'>alter delete from peminjaman where tgl_peminjaman=’2017-01-10’;</div>","letter":4,"mcQuestion":{"$oid":"5a24429e5568f521f130b8b8"}}
{"_id":{"$oid":"5a244bcc5568f521f130b91e"},"content":"<div style='font-family: consolas; display: inline-block;'>delete from peminjaman where tgl_peminjaman=’2017-01-10’;</div>","letter":5,"mcQuestion":{"$oid":"5a24429e5568f521f130b8b8"}}
